…
## Let’s simulate a lot

Let’s start with a for loop

``` r
output = vector("list", length = 100) # length says we're running this sim 100 times

for (i in 1:100) { #for each iteration (1-100), i need to do the output
  output[[i]] = sim_mean_sd(samp_size = 30)
}

bind_rows(output) #gives a tibble of mean and sd outputs
```

    ## # A tibble: 100 x 2
    ##     mean    sd
    ##    <dbl> <dbl>
    ##  1  2.02  3.96
    ##  2  2.76  3.65
    ##  3  2.73  5.25
    ##  4  2.99  3.50
    ##  5  2.39  3.73
    ##  6  3.06  4.25
    ##  7  2.40  3.98
    ##  8  1.70  4.41
    ##  9  2.39  3.68
    ## 10  1.72  4.34
    ## # … with 90 more rows
…
